
<!-- Columbarium -->
	<div class="portfolio">
		<div class="container">
			<h2 class="w3ls_head">Columbarium</h2>
			<p class="w3layouts_para">The Columbarium is currently under construction and will soon rise to serve our clients' needs. </p>
			<div class="portfolio-agile">
			<div class="main">

<!---
                <div class="view view-seventh">
					<a href="images/columbarium/01.jpg" rel="title" class="b-link-stripe b-animate-go  thickbox">
						<img src="images/columbarium/01-t.jpg" />
						<div class="mask">
							<h2>Columbarium</h2>
							<p>Click to magnify.</p>
						</div>
					</a>
                </div>
//-->



				<div class="clearfix"></div>
           
			</div>
		</div>
	</div>
<!-- //Columbarium -->
<!-- pop-up-script -->
<script src="js/jquery.chocolat.js"></script>
<script type="text/javascript" charset="utf-8">
$(function() {
	$('.view-seventh a').Chocolat();
});
</script>
<!-- //pop-up-script -->